['hit', 'walks', 'imprisoned', 'takes', 'must', 'hits', 'must', 'rain', 'puffing', 'grave', 'hits', 'hits', 'growled', 'took', 'dancing', 'round', 'must', 'hits', 'scowling', 'must']
['hello', 'Jack', 'Bob', 'Hello', 'Jill']
['ball', 'cat', 'Clunk', 'time', 'pigs', 'pig', 'pigs', 'home', 'wolf', 'chest', 'hairy', 'dog', 'dog', 'sad', 'pigs', 'round', 'pig', 'alien']
['Jack', 'Bob', 'ball', 'dog', 'cat', 'pigs', 'round', 'pig', 'Hello', 'Jill', 'alien']
['hola', 'bonjour', 'he', 'their', 'It', 'they', 'he', 'his', 'he', 'he']
['pretty', 'ugly', 'sad', 'warm', 'laziest', 'little', 'laziest', 'happy', 'happy', 'little', 'little', 'deep']
['happily', 'greatly', 'madly', 'fully', 'angrily', 'ugly', 'very', 'However']
['help', 'So', 'So']
['And', 'and', 'and']
['An', 'an', 'An', 'An', 'the', 'The', 'an', 'An', 'an', 'An', 'an', 'a', 'The', 'a', 'a']
["'s", 'out']
